\relax 
\catcode `"\active 
\catcode `<\active 
\catcode `>\active 
\@nameuse{es@quoting}
\providecommand\tcolorbox@label[2]{}
\select@language{spanish}
\@writefile{toc}{\select@language{spanish}}
\@writefile{lof}{\select@language{spanish}}
\@writefile{lot}{\select@language{spanish}}
\@writefile{toc}{\contentsline {chapter}{\numberline {1}El cuerpo y el instrumento}{11}}
\@writefile{lof}{\addvspace {10\p@ }}
\@writefile{lot}{\addvspace {10\p@ }}
\@writefile{toc}{\contentsline {section}{\numberline {1.1}Construcci\IeC {\'o}n de la posici\IeC {\'o}n}{11}}
\@writefile{toc}{\contentsline {subsection}{\numberline {1.1.1}La posici\IeC {\'o}n de sentado}{12}}
\@writefile{toc}{\contentsline {subsection}{\numberline {1.1.2}Construcci\IeC {\'o}n de la posici\IeC {\'o}n definitiva}{14}}
\@writefile{toc}{\contentsline {subsubsection}{Lecturas recomendadas}{16}}
\@writefile{toc}{\contentsline {section}{\numberline {1.2}Grupos musculares}{16}}
\newlabel{gruposmusculares}{{1.2}{16}}
\@writefile{toc}{\contentsline {subsection}{\numberline {1.2.1}Concepto de fijaci\IeC {\'o}n}{18}}
\newlabel{fijacion}{{1.2.1}{18}}
\@writefile{toc}{\contentsline {subsubsection}{Lecturas recomendadas}{19}}
\newlabel{el-concepto-de-fijaciuxf3n}{{1.2.1}{19}}
\@writefile{toc}{\contentsline {subparagraph}{El concepto de fijaci\IeC {\'o}n}{19}}
\@writefile{toc}{\contentsline {section}{\numberline {1.3}Relajaci\IeC {\'o}n; movilidad; estabilidad}{19}}
\@writefile{toc}{\contentsline {chapter}{\numberline {2}Mano derecha}{21}}
\@writefile{lof}{\addvspace {10\p@ }}
\@writefile{lot}{\addvspace {10\p@ }}
\@writefile{toc}{\contentsline {section}{\numberline {2.1}Construcci\IeC {\'o}n de la posici\IeC {\'o}n}{21}}
\newlabel{mdconstruccion}{{2.1}{21}}
\@writefile{toc}{\contentsline {subsubsection}{Lecturas recomendadas}{23}}
\@writefile{toc}{\contentsline {section}{\numberline {2.2}Presentaciones de mano derecha}{23}}
\@writefile{lof}{\contentsline {figure}{\numberline {2.1}{\ignorespaces M. Carcassi: Estudio 7 (primeros dos compases)}}{23}}
\newlabel{exCarcassi7cc12}{{2.1}{23}}
\@writefile{toc}{\contentsline {subsection}{\numberline {2.2.1}Presentaci\IeC {\'o}n longitudinal}{23}}
\@writefile{toc}{\contentsline {subsection}{\numberline {2.2.2}Presentaci\IeC {\'o}n transversal}{24}}
\@writefile{toc}{\contentsline {section}{\numberline {2.3}Traslados de mano derecha}{25}}
\@writefile{toc}{\contentsline {subsection}{\numberline {2.3.1}Traslado de la boca al puente}{25}}
\@writefile{toc}{\contentsline {subsection}{\numberline {2.3.2}Traslado transversal}{26}}
\@writefile{lof}{\contentsline {figure}{\numberline {2.2}{\ignorespaces H. Villa-Lobos: Preludio 3 (primeros compases)}}{26}}
\newlabel{exVillaLobos3cc12}{{2.2}{26}}
\@writefile{toc}{\contentsline {subsubsection}{Estudios seleccionados}{27}}
\@writefile{toc}{\contentsline {subsubsection}{Fragmentos seleccionados}{28}}
\@writefile{toc}{\contentsline {section}{\numberline {2.4}Toques}{28}}
\@writefile{toc}{\contentsline {subsection}{\numberline {2.4.1}Toque libre}{28}}
\newlabel{toquelibre}{{2.4.1}{28}}
\@writefile{toc}{\contentsline {subsubsection}{Toque libre de pulgar}{29}}
\@writefile{toc}{\contentsline {subsection}{\numberline {2.4.2}Toque apoyado}{30}}
\@writefile{toc}{\contentsline {subsubsection}{Toque apoyado de pulgar}{30}}
\@writefile{toc}{\contentsline {subsubsection}{Estudios seleccionados}{31}}
\@writefile{toc}{\contentsline {subsection}{\numberline {2.4.3}Pizzicato}{31}}
\@writefile{lof}{\contentsline {figure}{\numberline {2.3}{\ignorespaces L. Brouwer: \textit  {Berceuse} (primeros compases).}}{31}}
\newlabel{exBrouwerBerceusecc1-4}{{2.3}{31}}
\@writefile{toc}{\contentsline {section}{\numberline {2.5}Acordes plaqu\IeC {\'e}}{33}}
\@writefile{toc}{\contentsline {subsection}{\numberline {2.5.1}Configuraciones de mano derecha}{33}}
\@writefile{lof}{\contentsline {figure}{\numberline {2.4}{\ignorespaces Configuraciones de acordes \textit  {plaqu\IeC {\'e}} utilizando el pulgar.}}{34}}
\newlabel{exAcPlaqueConPulgar}{{2.4}{34}}
\@writefile{lof}{\contentsline {figure}{\numberline {2.5}{\ignorespaces Configuraciones de acordes \textit  {plaqu\IeC {\'e}} sin utilizar el pulgar.}}{34}}
\newlabel{exAcPlaqueSinPulgar}{{2.5}{34}}
\@writefile{lof}{\contentsline {figure}{\numberline {2.6}{\ignorespaces Acordes \textit  {plaqu\IeC {\'e}}: trabajo del pulgar en diferentes cuerdas.}}{34}}
\newlabel{exAcPlaqueAltPulgar}{{2.6}{34}}
\@writefile{lof}{\contentsline {figure}{\numberline {2.7}{\ignorespaces Acordes \textit  {plaqu\IeC {\'e}} con separaci\IeC {\'o}n de dedos.}}{35}}
\newlabel{exAcPlaqueSepDedos}{{2.7}{35}}
\@writefile{toc}{\contentsline {subsubsection}{Estudios seleccionados}{35}}
\@writefile{toc}{\contentsline {subsubsection}{Fragmentos seleccionados}{35}}
\@writefile{toc}{\contentsline {subsubsection}{Obras seleccionadas}{36}}
\@writefile{toc}{\contentsline {section}{\numberline {2.6}Notas repetidas}{36}}
\@writefile{lof}{\contentsline {figure}{\numberline {2.8}{\ignorespaces Notas repetidas en la 1\IeC {\textordfeminine } cuerda (permutaci\IeC {\'o}n N\IeC {\textordmasculine }3).}}{36}}
\newlabel{exNrep1}{{2.8}{36}}
\@writefile{lof}{\contentsline {figure}{\numberline {2.9}{\ignorespaces Notas repetidas en la 1\IeC {\textordfeminine } cuerda (permutaci\IeC {\'o}n N\IeC {\textordmasculine }6).}}{37}}
\newlabel{exNrep2}{{2.9}{37}}
\@writefile{lof}{\contentsline {figure}{\numberline {2.10}{\ignorespaces Notas repetidas incorporando el pulgar a intervalos regulares.}}{37}}
\newlabel{exNrep3}{{2.10}{37}}
\@writefile{lof}{\contentsline {figure}{\numberline {2.11}{\ignorespaces Notas repetidas incorporando el pulgar variando el dise\IeC {\~n}o r\IeC {\'\i }tmico.}}{37}}
\newlabel{exNrep4}{{2.11}{37}}
\@writefile{lof}{\contentsline {figure}{\numberline {2.12}{\ignorespaces Notas repetidas acentuando a intervalos regulares.}}{38}}
\newlabel{exNrep5}{{2.12}{38}}
\@writefile{lof}{\contentsline {figure}{\numberline {2.13}{\ignorespaces Notas repetidas acentuando un dise\IeC {\~n}o r\IeC {\'\i }tmico.}}{38}}
\newlabel{exNrep6}{{2.13}{38}}
\@writefile{lof}{\contentsline {figure}{\numberline {2.14}{\ignorespaces Notas repetidas: la digitaci\IeC {\'o}n de mano derecha se desplaza r\IeC {\'\i }tmicamente en relaci\IeC {\'o}n al comp\IeC {\'a}s.}}{38}}
\newlabel{exNrep7}{{2.14}{38}}
\@writefile{toc}{\contentsline {subsubsection}{Estudios seleccionados}{39}}
\@writefile{toc}{\contentsline {section}{\numberline {2.7}Apagadores}{39}}
\@writefile{lof}{\contentsline {figure}{\numberline {2.15}{\ignorespaces J. S. Bach: Bourr\IeC {\'e}e en Mi menor (comienzo)}}{39}}
\newlabel{exBachBourreec1}{{2.15}{39}}
\@writefile{lof}{\contentsline {figure}{\numberline {2.16}{\ignorespaces M. Carcassi: Estudio Op.60 N\IeC {\textordmasculine }1 (comienzo)}}{40}}
\newlabel{exCarcassi1cc12}{{2.16}{40}}
\@writefile{toc}{\contentsline {chapter}{\numberline {3}Mano izquierda}{41}}
\@writefile{lof}{\addvspace {10\p@ }}
\@writefile{lot}{\addvspace {10\p@ }}
\@writefile{toc}{\contentsline {section}{\numberline {3.1}Construcci\IeC {\'o}n de la posici\IeC {\'o}n}{41}}
\newlabel{miconstruccion}{{3.1}{41}}
\@writefile{toc}{\contentsline {section}{\numberline {3.2}Traslados de mano izquierda}{42}}
\@writefile{toc}{\contentsline {subsection}{\numberline {3.2.1}Traslado longitudinal}{42}}
\@writefile{toc}{\contentsline {subsection}{\numberline {3.2.2}Traslado transversal}{42}}
\@writefile{toc}{\contentsline {subsection}{\numberline {3.2.3}Traslado mediante la cuerda al aire}{42}}
\@writefile{toc}{\contentsline {subsubsection}{Fragmentos seleccionados}{43}}
\@writefile{toc}{\contentsline {section}{\numberline {3.3}Presentaciones de mano izquierda}{43}}
\@writefile{lof}{\contentsline {figure}{\numberline {3.1}{\ignorespaces Presentaciones de mano izquierda}}{43}}
\newlabel{ExPresentMI}{{3.1}{43}}
\@writefile{toc}{\contentsline {subsection}{\numberline {3.3.1}Presentaci\IeC {\'o}n longitudinal}{43}}
\@writefile{toc}{\contentsline {subsection}{\numberline {3.3.2}Presentaci\IeC {\'o}n transversal}{43}}
\@writefile{toc}{\contentsline {subsection}{\numberline {3.3.3}Cambios de presentaci\IeC {\'o}n}{44}}
\@writefile{toc}{\contentsline {section}{\numberline {3.4}Distensi\IeC {\'o}n y contracci\IeC {\'o}n}{44}}
\@writefile{lof}{\contentsline {figure}{\numberline {3.2}{\ignorespaces Posiciones distendidas y contra\IeC {\'\i }das}}{44}}
\newlabel{exDistContr}{{3.2}{44}}
\@writefile{toc}{\contentsline {subsection}{\numberline {3.4.1}Distensi\IeC {\'o}n}{44}}
\@writefile{toc}{\contentsline {subsection}{\numberline {3.4.2}Contracci\IeC {\'o}n}{44}}
\@writefile{toc}{\contentsline {section}{\numberline {3.5}Cejilla}{45}}
\@writefile{lof}{\contentsline {figure}{\numberline {3.3}{\ignorespaces Cejilla y media cejilla}}{45}}
\newlabel{exCeja}{{3.3}{45}}
\@writefile{toc}{\contentsline {chapter}{\numberline {4}Arpegios}{47}}
\@writefile{lof}{\addvspace {10\p@ }}
\@writefile{lot}{\addvspace {10\p@ }}
\@writefile{toc}{\contentsline {subsubsection}{Estudios seleccionados}{47}}
\@writefile{toc}{\contentsline {chapter}{\numberline {5}L\IeC {\'\i }nea}{49}}
\@writefile{lof}{\addvspace {10\p@ }}
\@writefile{lot}{\addvspace {10\p@ }}
\@writefile{toc}{\contentsline {section}{\numberline {5.1}L\IeC {\'\i }neas diat\IeC {\'o}nicas}{49}}
\@writefile{toc}{\contentsline {subsubsection}{Estudios seleccionados}{49}}
\@writefile{toc}{\contentsline {section}{\numberline {5.2}L\IeC {\'\i }neas en forma de arpegios}{49}}
\@writefile{toc}{\contentsline {chapter}{\numberline {6}Din\IeC {\'a}micas}{51}}
\@writefile{lof}{\addvspace {10\p@ }}
\@writefile{lot}{\addvspace {10\p@ }}
\@writefile{toc}{\contentsline {section}{\numberline {6.1}Gradualidad}{51}}
\@writefile{toc}{\contentsline {section}{\numberline {6.2}Contraste}{51}}
\@writefile{toc}{\contentsline {section}{\numberline {6.3}Tipos de toque en funci\IeC {\'o}n de la din\IeC {\'a}mica}{51}}
\@writefile{toc}{\contentsline {chapter}{\numberline {7}Articulaci\IeC {\'o}n y acentos}{53}}
\@writefile{lof}{\addvspace {10\p@ }}
\@writefile{lot}{\addvspace {10\p@ }}
\@writefile{toc}{\contentsline {section}{\numberline {7.1}Legato}{53}}
\@writefile{toc}{\contentsline {section}{\numberline {7.2}Staccato}{53}}
\@writefile{toc}{\contentsline {section}{\numberline {7.3}Tenuto}{53}}
\@writefile{toc}{\contentsline {section}{\numberline {7.4}Acentos}{54}}
\@writefile{toc}{\contentsline {section}{\numberline {7.5}Fermata}{54}}
\@writefile{toc}{\contentsline {chapter}{\numberline {8}Ligados}{55}}
\@writefile{lof}{\addvspace {10\p@ }}
\@writefile{lot}{\addvspace {10\p@ }}
\@writefile{toc}{\contentsline {section}{\numberline {8.1}Ligados ascendentes}{55}}
\@writefile{toc}{\contentsline {subsubsection}{Estudios seleccionados}{55}}
\@writefile{toc}{\contentsline {section}{\numberline {8.2}Ligados descendentes}{55}}
\@writefile{toc}{\contentsline {subsubsection}{Estudios seleccionados}{56}}
\@writefile{toc}{\contentsline {section}{\numberline {8.3}Ligados con cuerda al aire}{56}}
\@writefile{toc}{\contentsline {subsubsection}{Estudios seleccionados}{56}}
\@writefile{toc}{\contentsline {chapter}{\numberline {9}Adornos}{57}}
\@writefile{lof}{\addvspace {10\p@ }}
\@writefile{lot}{\addvspace {10\p@ }}
\@writefile{toc}{\contentsline {section}{\numberline {9.1}Apoyatura; mordente; trino}{57}}
\@writefile{toc}{\contentsline {section}{\numberline {9.2}Arrastres}{57}}
\@writefile{toc}{\contentsline {section}{\numberline {9.3}Arpeggiato}{58}}
\@writefile{toc}{\contentsline {section}{\numberline {9.4}Vibrato}{58}}
\@writefile{toc}{\contentsline {chapter}{\numberline {10}Arm\IeC {\'o}nicos}{59}}
\@writefile{lof}{\addvspace {10\p@ }}
\@writefile{lot}{\addvspace {10\p@ }}
\@writefile{toc}{\contentsline {section}{\numberline {10.1}Arm\IeC {\'o}nicos naturales}{59}}
\@writefile{toc}{\contentsline {section}{\numberline {10.2}Arm\IeC {\'o}nicos artificiales}{59}}
\@writefile{toc}{\contentsline {subsubsection}{Obras seleccionadas}{60}}
\@writefile{toc}{\contentsline {chapter}{\numberline {A}Adornos}{61}}
\@writefile{lof}{\addvspace {10\p@ }}
\@writefile{lot}{\addvspace {10\p@ }}
\@writefile{toc}{\contentsline {section}{\numberline {A.1}Mordente}{61}}
\@writefile{lof}{\contentsline {figure}{\numberline {A.1}{\ignorespaces Mordentes superior e inferior}}{62}}
\newlabel{exMordente1}{{A.1}{62}}
\@writefile{toc}{\contentsline {section}{\numberline {A.2}Grupeto}{62}}
\@writefile{lof}{\contentsline {figure}{\numberline {A.2}{\ignorespaces Grupetos ascendente y descendente}}{62}}
\newlabel{exGrupeto1}{{A.2}{62}}
\@writefile{toc}{\contentsline {section}{\numberline {A.3}Trino}{62}}
\@writefile{lof}{\contentsline {figure}{\numberline {A.3}{\ignorespaces Trinos barroco y cl\IeC {\'a}sico}}{63}}
\newlabel{exTrino1}{{A.3}{63}}
\@writefile{toc}{\contentsline {section}{\numberline {A.4}Apoyatura y acciaccatura}{63}}
\@writefile{lof}{\contentsline {figure}{\numberline {A.4}{\ignorespaces Apoyatura y acciaccatura}}{63}}
\newlabel{exApoyaturaAcciaccatura1}{{A.4}{63}}
\@writefile{toc}{\contentsline {section}{\numberline {A.5}Bordadura}{63}}
\@writefile{lof}{\contentsline {figure}{\numberline {A.5}{\ignorespaces Bordadura}}{64}}
\newlabel{exBordadura1}{{A.5}{64}}
\@writefile{toc}{\contentsline {section}{\numberline {A.6}Arpeggiato}{64}}
\@writefile{lof}{\contentsline {figure}{\numberline {A.6}{\ignorespaces Arpeggiato}}{64}}
\newlabel{exArpeggiato1}{{A.6}{64}}
\@writefile{lof}{\contentsline {figure}{\numberline {A.7}{\ignorespaces Arpeggiato en pasajes a dos voces}}{65}}
\newlabel{exArpeggiato2}{{A.7}{65}}
\@writefile{toc}{\contentsline {section}{\numberline {A.7}Glissando y portamento}{65}}
\@writefile{lof}{\contentsline {figure}{\numberline {A.8}{\ignorespaces Glissando}}{65}}
\newlabel{exGlissPort1}{{A.8}{65}}
\@writefile{lof}{\contentsline {figure}{\numberline {A.9}{\ignorespaces Portamento}}{66}}
\newlabel{exGlissPort2}{{A.9}{66}}
\@writefile{toc}{\contentsline {section}{\numberline {A.8}Vibrato}{66}}
\@writefile{lof}{\contentsline {figure}{\numberline {A.10}{\ignorespaces Vibrato}}{66}}
\newlabel{exVibrato1}{{A.10}{66}}
\@writefile{toc}{\contentsline {chapter}{\numberline {B}Arm\IeC {\'o}nicos}{69}}
\@writefile{lof}{\addvspace {10\p@ }}
\@writefile{lot}{\addvspace {10\p@ }}
\@writefile{toc}{\contentsline {section}{\numberline {B.1}Arm\IeC {\'o}nicos naturales}{69}}
\@writefile{toc}{\contentsline {subsection}{\numberline {B.1.1}La serie arm\IeC {\'o}nica}{69}}
\@writefile{toc}{\contentsline {subsection}{\numberline {B.1.2}Los arm\IeC {\'o}nicos de una cuerda}{70}}
\@writefile{toc}{\contentsline {subsection}{\numberline {B.1.3}Alturas de los arm\IeC {\'o}nicos de la serie}{71}}
\@writefile{lof}{\contentsline {figure}{\numberline {B.2}{\ignorespaces Serie arm\IeC {\'o}nica a partir de la nota \textit  {do}}}{71}}
\newlabel{seriearmdo}{{B.2}{71}}
\@writefile{toc}{\contentsline {subsubsection}{Obras seleccionadas}{72}}
\@writefile{toc}{\contentsline {subsection}{\numberline {B.1.4}Arm\IeC {\'o}nicos naturales con otras afinaciones}{72}}
\@writefile{lof}{\contentsline {figure}{\numberline {B.4}{\ignorespaces Los arm\IeC {\'o}nicos de la 6\IeC {\textordfeminine } cuerda en Re.}}{73}}
\newlabel{arm6taRe}{{B.4}{73}}
\@writefile{lof}{\contentsline {figure}{\numberline {B.5}{\ignorespaces Los arm\IeC {\'o}nicos de la 3\IeC {\textordfeminine } cuerda en Fa\musSharp .}}{73}}
\newlabel{arm3raFis}{{B.5}{73}}
\@writefile{toc}{\contentsline {section}{\numberline {B.2}Arm\IeC {\'o}nicos artificiales}{73}}
\@writefile{lof}{\contentsline {figure}{\numberline {B.6}{\ignorespaces Ejemplo de arm\IeC {\'o}nicos artificiales}}{73}}
\newlabel{exArmMD}{{B.6}{73}}
\@writefile{toc}{\contentsline {subsubsection}{Obras seleccionadas}{74}}
\@writefile{lof}{\contentsline {figure}{\numberline {B.1}{\ignorespaces Vibraci\IeC {\'o}n de los sucesivos arm\IeC {\'o}nicos en una cuerda}}{75}}
\newlabel{overtone}{{B.1}{75}}
\@writefile{lof}{\contentsline {figure}{\numberline {B.3}{\ignorespaces Los primeros 5 arm\IeC {\'o}nicos en cada una de las cuerdas.}}{76}}
\newlabel{armxcda}{{B.3}{76}}
