\relax 
\catcode `"\active 
\catcode `<\active 
\catcode `>\active 
\@nameuse{es@quoting}
\@writefile{lof}{\contentsline {figure}{\numberline {1}{\ignorespaces Vibraci\IeC {\'o}n de los sucesivos arm\IeC {\'o}nicos en una cuerda.}}{1}}
