\relax 
\catcode `"\active 
\catcode `<\active 
\catcode `>\active 
\@nameuse{es@quoting}
\select@language{spanish}
\@writefile{toc}{\select@language{spanish}}
\@writefile{lof}{\select@language{spanish}}
\@writefile{lot}{\select@language{spanish}}
\@writefile{toc}{\contentsline {chapter}{\numberline {1}Modelando el tempo}{1}}
\@writefile{lof}{\addvspace {10\p@ }}
\@writefile{lot}{\addvspace {10\p@ }}
\@writefile{toc}{\contentsline {section}{\numberline {1.1}Medidas metron\IeC {\'o}micas}{1}}
\@writefile{lot}{\contentsline {table}{\numberline {1.1}{\ignorespaces Medidas metron\IeC {\'o}micas basadas en Quantz.}}{2}}
\newlabel{table_MM_quantz}{{1.1}{2}}
\@writefile{toc}{\contentsline {chapter}{\numberline {2}Modelando el ritmo}{5}}
\@writefile{lof}{\addvspace {10\p@ }}
\@writefile{lot}{\addvspace {10\p@ }}
\@writefile{toc}{\contentsline {section}{\numberline {2.1}Alteraciones del ritmo}{5}}
\@writefile{toc}{\contentsline {section}{\numberline {2.2}Desigualdad (\textit  {inegalit\IeC {\'e}})}{5}}
\@writefile{toc}{\contentsline {section}{\numberline {2.3}Figuras con puntillo}{11}}
\@writefile{lof}{\contentsline {figure}{\numberline {2.1}{\ignorespaces El puntillo variable en el barroco.}}{12}}
\newlabel{table_variable_baroque_dot}{{2.1}{12}}
\@writefile{lof}{\contentsline {figure}{\numberline {2.2}{\ignorespaces Ejemplo 5. Giulio Caccini, \textit  {Nuove Musiche}, Florencia, 1602, prefacio, breves pasajes que invitan a la desigualdad r\IeC {\'\i }tmica, con las recomendaciones de Caccini para (a) simple, (b) inversa, (c) ritmo libre. }}{15}}
\newlabel{ex5-5}{{2.2}{15}}
\@writefile{lof}{\contentsline {figure}{\numberline {2.3}{\ignorespaces Ejemplo 6. Giovanni Battista Vulpio, cantata `Dolce zampogna mia', mediados del S. XVII, Roma, Biblioteca Nazionale Centrale Vittorio Emanuele 11, MS Musicale 162, \IeC {\'\i }\IeC {\'\i }, 109v--110r, varias inconsistencias t\IeC {\'\i }picas en la notaci\IeC {\'o}n del ritmo de pasajes parecidos que requieren consistencia en la ejecuci\IeC {\'o}n (en el ejemplo que sigue, la realizaci\IeC {\'o}n del fragmento es original; la primera opci\IeC {\'o}n parece ser la mejor). }}{16}}
\newlabel{ex5-6}{{2.3}{16}}
\@writefile{lof}{\contentsline {figure}{\numberline {2.4}{\ignorespaces Ejemplo 7. `M$^r$ Hardel', pieza para clavec\IeC {\'\i }n, finales del siglo XVII, Par\IeC {\'\i }s, Bibl. Nac., R\IeC {\'e}s. Vm$^7$. 674), f. 38, coincidencia de desigualdad r\IeC {\'\i }tmica escrita consistentemente en la mano derecha, inconsistentemente en la mano izquierda, si bien invitando a una ejecuci\IeC {\'o}n desigual en todo el pasaje. }}{16}}
\newlabel{ex5-7}{{2.4}{16}}
\@writefile{lof}{\contentsline {figure}{\numberline {2.5}{\ignorespaces Ejemplo 8. Jean Henri D'Anglebert, Sarabande grave, ed. por M. Roesgen Champion (Par\IeC {\'\i }s, 1934, p\IeC {\'a}gs. 141 y 145) de las \textit  {Piezas de Clavec\IeC {\'\i }n} (Par\IeC {\'\i }s, 1689) y Par\IeC {\'\i }s, Bibl. Nac., Bauyn MS, R\IeC {\'e}s. Vm$^7$. 674), c. 2, (a) en notaci\IeC {\'o}n igual, (b) en notaci\IeC {\'o}n desigual, representando el ritmo de preferencia para la ejecuci\IeC {\'o}n. }}{16}}
\newlabel{ex5-8}{{2.5}{16}}
\@writefile{lof}{\contentsline {figure}{\numberline {2.6}{\ignorespaces Ejemplo 9. Autor an\IeC {\'o}nimo del `Libro de Instrucciones para La\IeC {\'u}d de Miss Mary Burwell', c.1660--70, ed. ThurstonDart, \textit  {Galpin Society Journal}, XI, 1958, p\IeC {\'a}gs. 3--62, ver p\IeC {\'a}gs. 46--7, `demostraci\IeC {\'o}n de c\IeC {\'o}mo interpretar una lecci\IeC {\'o}n con gracia', (a) notaci\IeC {\'o}n, (b) indicaciones para la ejecuci\IeC {\'o}n (comparar con la desigualdad \textit  {cantabile} en Purcell en el ejemplo 12 m\IeC {\'a}s adelante), }}{17}}
\newlabel{ex5-9}{{2.6}{17}}
\@writefile{lof}{\contentsline {figure}{\numberline {2.7}{\ignorespaces Ejemplo 10. Roger North, notas seleccionadas (.1690) ed. John Wilson, \textit  {Roger North on Music}, Londres, 1959, p. 223, ritmos (b) igual (simple), (a) apuntillado (vigoroso) y (c) atresillado (\textit  {cantabile}) como opciones para el ejecutante en el caso de negras escritas iguales (en sus palabras: las tres opciones `vienen a significar lo mismo') --- \textit  {(N. del T.: ``it comes to the same account'' en el original)}. }}{17}}
\newlabel{ex5-10}{{2.7}{17}}
\@writefile{lof}{\contentsline {figure}{\numberline {2.8}{\ignorespaces Ejemplo 11. Henry Purcell, Suite III, Almand, cc. 5--7: (a) Oxford, Christ Church MS 1117; (b) ed. de Londres, 1696; y Suite IV, Corant, cc. 1--3; (c) Par\IeC {\'\i }s, Bibl. Nac., MS R\IeC {\'e}s. 1186 bis, I; (d) Oxford, Ch. Ch. MS 1117; (e) ed. de 1696. }}{18}}
\newlabel{ex5-11}{{2.8}{18}}
\@writefile{lof}{\contentsline {figure}{\numberline {2.9}{\ignorespaces Ejemplo 12. (a) Henry Purcell, segunda frase de `Fairest Aisle' (finales del siglo XVII), tal como aparece en \textit  {Orpheus Britannicus}; (b) la misma frase tal como aparece impresa en \textit  {Apollo's Banquet}, \textit  {Segundo Libro}, Londres, 1691, partitura adicional, con el bemol escrito expl\IeC {\'\i }citamente, y asimismo con la desigualdad r\IeC {\'\i }tmica convencional, si bien opcional, tambi\IeC {\'e}n escrita, interpretada preferentemente \textit  {cantabile}, en tresillos. }}{19}}
\newlabel{ex5-12}{{2.9}{19}}
\@writefile{lof}{\contentsline {figure}{\numberline {2.10}{\ignorespaces Ejemplo 13. Jean-Philippe Rameau, (a) \textit  {Pi\IeC {\`e}ces de Clavecin}, Par\IeC {\'\i }s, 1741, Musette en Mi mayor, \dots  }}{19}}
\newlabel{ex5-13}{{2.10}{19}}
\@writefile{toc}{\contentsline {section}{\numberline {2.4}Ejemplos de alteraci\IeC {\'o}n r\IeC {\'\i }tmica}{19}}
\@writefile{toc}{\contentsline {chapter}{\numberline {3}Alteraciones}{21}}
\@writefile{lof}{\addvspace {10\p@ }}
\@writefile{lot}{\addvspace {10\p@ }}
\@writefile{toc}{\contentsline {section}{\numberline {3.1}Persistencia de las alteraciones}{21}}
\@writefile{lot}{\contentsline {table}{\numberline {3.1}{\ignorespaces The hexachordal system}}{22}}
\newlabel{table_hexachordal_system}{{3.1}{22}}
\@writefile{toc}{\contentsline {chapter}{\numberline {4}Ornamentando la l\IeC {\'\i }nea}{23}}
\@writefile{lof}{\addvspace {10\p@ }}
\@writefile{lot}{\addvspace {10\p@ }}
\@writefile{toc}{\contentsline {section}{\numberline {4.1}Elecci\IeC {\'o}n y necesidad}{23}}
\@writefile{toc}{\contentsline {section}{\numberline {4.2}La ornamentaci\IeC {\'o}n libre}{24}}
\@writefile{toc}{\contentsline {section}{\numberline {4.3}Sugerencias para la ornamentaci\IeC {\'o}n libre}{27}}
\@writefile{lof}{\contentsline {figure}{\numberline {4.1}{\ignorespaces Ejemplo 73. Giulio Caccini, comienzo de `Ardi, cor mio', (a) transcripto tal cual aparece en Florencia, Bibl. Naz., M5 Magl. XIX.66, p. 131 (y casi exactamente igual aparece en Bruselas, Bibl. du Cons., MS 704, pp. 77--81); (b) tal como aparece ornamentado en Caccini, \textit  {Nuove Musiche}, Florencia, 1602 (revisado por H. Wiley Hitchcock). }}{30}}
\newlabel{ex7-73}{{4.1}{30}}
\@writefile{lof}{\contentsline {figure}{\numberline {4.2}{\ignorespaces Ejemplo 74.}}{31}}
\newlabel{ex7-74}{{4.2}{31}}
\@writefile{lof}{\contentsline {figure}{\numberline {4.3}{\ignorespaces Ejemplo 75. M. de la Barre, \textit  {Airs \IeC {\`a} deux parties}, Par\IeC {\'\i }s, p\IeC {\'a}gs. 12 en adelante, sugiere breves ornamentaciones adicionales y un couplet para una sarabanda vocal. }}{32}}
\newlabel{ex7-75}{{4.3}{32}}
\@writefile{toc}{\contentsline {section}{\numberline {4.4}Ejemplos de ornamentaci\IeC {\'o}n libre}{32}}
\@writefile{lof}{\contentsline {figure}{\numberline {4.4}{\ignorespaces Ejemplo 77. Geminiano Giacomelli, \textit  {Merope}, Venecia, 1734, comienzo de `Quell' usignolo', (a) tal como est\IeC {\'a} escrito, (b) libremente ornamentado, incluyendo una cadenza relativamente breve, por Farinelli (propiamente Carlo Broschi), repr. por Franz Hab\IeC {\"o}ck, \textit  {Die Gesangkunst der Kastraten}, Viena, 1923, p\IeC {\'a}g. 140, de un manuscrito no identificado (en realidad se trata de \IeC {\"O}sterreichische Nationalbibliothek MS 19111 No. 3, Viena). }}{33}}
\newlabel{ex7-77}{{4.4}{33}}
\@writefile{lof}{\contentsline {figure}{\numberline {4.5}{\ignorespaces Ejemplo 78. Corelli, op. V, No. 1, (a) en la primera edici\IeC {\'o}n, (b) ornamentaci\IeC {\'o}n por la edici\IeC {\'o}n de Roger de 1715 (probablemente seg\IeC {\'u}n Corelli, recopilado muchos a\IeC {\~n}os despu\IeC {\'e}s por Roger). }}{34}}
\newlabel{ex7-78}{{4.5}{34}}
\@writefile{lof}{\contentsline {figure}{\numberline {4.6}{\ignorespaces Ejemplo 79a. Arcangelo Corelli, Sonatas para viol\IeC {\'\i }n, op. V, Roma, 1700, No. 9, con elaboraciones ornamentales libres (primera mitad del siglo XVIII) por Francesco Geminiani, impreso por Sir John Hawkins, \textit  {A General History \dots  of Music}, Londres, 1776, ed. de 1875, II, p\IeC {\'a}gs. 90 en adelante (y en Hans-Peter Schmitz, \textit  {Die Kunst der Verzierung}, Kassel, 1955, y ed., Kassel, 1965, p\IeC {\'a}gs. 62--9); tocar las apoyaturas breves, acentuadas, sobre el pulso. \textit  {(N. del T.: v\IeC {\'e}ase tambi\IeC {\'e}n los ejemplos 79b, 79c y 79d.)} }}{34}}
\newlabel{ex7-79a}{{4.6}{34}}
\@writefile{lof}{\contentsline {figure}{\numberline {4.7}{\ignorespaces Ejemplo 79b. }}{35}}
\newlabel{ex7-79b}{{4.7}{35}}
\@writefile{lof}{\contentsline {figure}{\numberline {4.8}{\ignorespaces Ejemplo 79c. }}{35}}
\newlabel{ex7-79c}{{4.8}{35}}
\@writefile{lof}{\contentsline {figure}{\numberline {4.9}{\ignorespaces Ejemplo 79d. \IeC {\'U}ltimo movimiento; versiones cotejadas por Sol Babitz y comunicadas en forma privada. }}{35}}
\newlabel{ex7-79d}{{4.9}{35}}
\@writefile{lof}{\contentsline {figure}{\numberline {4.10}{\ignorespaces Ejemplo 80. J. B. Loeillet, Sonata en Fa mayor para flauta, viol\IeC {\'\i }n u oboe, Largo, \IeC {\'u}ltimos compases, breve cadenza escrita (ed. Hinnenthal, Berl\IeC {\'\i }n, 1945). }}{36}}
\newlabel{ex7-80}{{4.10}{36}}
\@writefile{lof}{\contentsline {figure}{\numberline {4.11}{\ignorespaces Ejemplo 81. Corelli, Op. V No. 7, (a) notaci\IeC {\'o}n del original; (b) mi propuesta de ornamentaci\IeC {\'o}n; (c) para la repetici\IeC {\'o}n. }}{37}}
\newlabel{ex7-81}{{4.11}{37}}
\@writefile{lof}{\contentsline {figure}{\numberline {4.12}{\ignorespaces Ejemplo 81 (continuaci\IeC {\'o}n). }}{38}}
\newlabel{ex7-81cont}{{4.12}{38}}
\@writefile{toc}{\contentsline {chapter}{\numberline {5}Ornamentos espec\IeC {\'\i }ficos}{39}}
\@writefile{lof}{\addvspace {10\p@ }}
\@writefile{lot}{\addvspace {10\p@ }}
\@writefile{toc}{\contentsline {section}{\numberline {5.1}Una situaci\IeC {\'o}n abierta}{39}}
\@writefile{lof}{\contentsline {figure}{\numberline {5.1}{\ignorespaces Ejemplo 82. Playford, \textit  {Introducci\IeC {\'o}n}, Londres, 1654 (eds. 1660 en adelante), apoyaturas.}}{40}}
\newlabel{ex8-82}{{5.1}{40}}
\@writefile{toc}{\contentsline {section}{\numberline {5.2}La apoyatura}{40}}
\@writefile{lof}{\contentsline {figure}{\numberline {5.2}{\ignorespaces Ejemplo 83. Apoyaturas en las \textit  {Lecciones} p\IeC {\'o}stumas de H. Purcell, Londres, 1696.}}{41}}
\newlabel{ex8-83}{{5.2}{41}}
\@writefile{lof}{\contentsline {figure}{\numberline {5.3}{\ignorespaces Ejemplo 84. D'Anglebert, \textit  {Piezas de clavec\IeC {\'\i }n}, Par\IeC {\'\i }s, 1689, apoyaturas (cheute ou port de voix).}}{41}}
\newlabel{ex8-84}{{5.3}{41}}
\@writefile{lof}{\contentsline {figure}{\numberline {5.4}{\ignorespaces Ejemplo 85. J. M. Hotteterre, \textit  {Principes}, Par\IeC {\'\i }s, 1707, p. 28, apoyaturas en (a) probablemente sobre el pulso, en (b) probablemente no. }}{41}}
\newlabel{ex8-85}{{5.4}{41}}
\@writefile{lof}{\contentsline {figure}{\numberline {5.5}{\ignorespaces Ejemplo 86. Dieupart, \textit  {Suites de clavecin}, Par\IeC {\'\i }s, c. 1720, apoyaturas. }}{42}}
\newlabel{ex8-86}{{5.5}{42}}
\@writefile{lof}{\contentsline {figure}{\numberline {5.6}{\ignorespaces Ejemplo 87. J. S. Bach, \textit  {Klavier-B\IeC {\"u}chlein}, comenzada en C\IeC {\"o}then, 1720. }}{42}}
\newlabel{ex8-87}{{5.6}{42}}
\@writefile{lof}{\contentsline {figure}{\numberline {5.7}{\ignorespaces Ejemplo 88. Johann Mattheson, \textit  {Volkommene Capellmeister}, Hamburgo, 1739, 11, iii, 24 y 25, apoyaturas por salto. }}{42}}
\newlabel{ex8-88}{{5.7}{42}}
\@writefile{lof}{\contentsline {figure}{\numberline {5.8}{\ignorespaces Ejemplo 89. Joachim Quantz, \textit  {Essay}, Berl\IeC {\'\i }n, 1752, \IeC {\'u}ltimas p\IeC {\'a}ginas del libro, Tabla VI, figuras 11, 13, 15, 17, 23 se ejecutan seg\IeC {\'u}n las figuras 12, 14, 16, 18, 24. }}{43}}
\newlabel{ex8-89}{{5.8}{43}}
\@writefile{lof}{\contentsline {figure}{\numberline {5.9}{\ignorespaces Ejemplo 90. J. S. Bach, Preludio XVIII del Libro II del \textit  {Clave bien temperado}, apoyaturas. }}{44}}
\newlabel{ex8-90}{{5.9}{44}}
\@writefile{lof}{\contentsline {figure}{\numberline {5.10}{\ignorespaces Ejemplo 91. Fran\IeC {\c c}ois Couperin, \textit  {Pi\IeC {\`e}ces de Clavecin}, Libro I, Par\IeC {\'\i }s, 1713, Cinqui\IeC {\`e}me Ordre, compases 9--10, (a) notaci\IeC {\'o}n, (b) la ejecuci\IeC {\'o}n m\IeC {\'a}s apropiada de la apoyatura. }}{45}}
\newlabel{ex8-91}{{5.10}{45}}
\@writefile{lof}{\contentsline {figure}{\numberline {5.11}{\ignorespaces Ejemplo 92. Georg Philipp Telemann, \textit  {Musikalisches Lob Gottes}, N\IeC {\"u}remberg, 1744; quintas consecutivas aceptables (a); \IeC {\'e}stas pueden escribirse como en (b); las cuales se oyen como si se tratase de la progresi\IeC {\'o}n gramaticalmente correcta (c). }}{45}}
\newlabel{ex8-92}{{5.11}{45}}
\@writefile{lof}{\contentsline {figure}{\numberline {5.12}{\ignorespaces Ejemplo 93. C. P. E. Bach, \textit  {Essay}, Berl\IeC {\'\i }n, 1753, ilustraciones para II, ii, 8. }}{47}}
\newlabel{ex8-93}{{5.12}{47}}
\@writefile{lof}{\contentsline {figure}{\numberline {5.13}{\ignorespaces Ejemplo 94. C. P. E. Bach, \textit  {Essay}, Berl\IeC {\'\i }n, 1753, II, ii, II. extra\IeC {\~n}o efecto r\IeC {\'\i }tmico causado por la apoyatura larga prolongada como es usual. }}{47}}
\newlabel{ex8-94}{{5.13}{47}}
\@writefile{lof}{\contentsline {figure}{\numberline {5.14}{\ignorespaces Ejemplo 95. Leopold Mozart, \textit  {Violinschule}. Augsburgo, 1756, IX, 4, mostrando la creciente tendencia a prolongar las apoyaturas. }}{47}}
\newlabel{ex8-95}{{5.14}{47}}
\@writefile{lof}{\contentsline {figure}{\numberline {5.15}{\ignorespaces Ejemplo 96. C. P. E. Bach, ilustraciones (hay otras) de lo indicado en \textit  {(245)}. }}{48}}
\newlabel{ex8-96}{{5.15}{48}}
\@writefile{toc}{\contentsline {section}{\numberline {5.3}El trino}{48}}
\@writefile{toc}{\contentsline {section}{\numberline {5.4}Ejemplos ilustrando el trino}{49}}
\@writefile{lof}{\contentsline {figure}{\numberline {5.16}{\ignorespaces Ejemplo 116. Sylvestro di Ganassi, \textit  {Fontegara}, Venecia, 1535, demostraci\IeC {\'o}n de especies de trino. }}{49}}
\newlabel{ex8-116}{{5.16}{49}}
\@writefile{lof}{\contentsline {figure}{\numberline {5.17}{\ignorespaces Ejemplo 117. Diego Ortiz, \textit  {Trattado}, Roma, 1553, demostraci\IeC {\'o}n de las notas del trino [se sobreentiende el ligado; ver f. 3r, `con un solo golpe de arco']. }}{49}}
\newlabel{ex8-117}{{5.17}{49}}
\@writefile{lof}{\contentsline {figure}{\numberline {5.18}{\ignorespaces Ejemplo 118. Giovanni Luca Conforti, \textit  {Breve et facile maniera d'essercitarsi a far passaggi}, Roma, 1593, trino escrito. }}{49}}
\newlabel{ex8-118}{{5.18}{49}}
\@writefile{lof}{\contentsline {figure}{\numberline {5.19}{\ignorespaces Ejemplo 119. Giulio Caccini \textit  {Euridice}, 1600, divisiones finalizando (a) con un trino escrito; (b) con un trino impl\IeC {\'\i }cito (llamado \textit  {groppo} por Caccini). }}{50}}
\newlabel{ex8-119}{{5.19}{50}}
\@writefile{lof}{\contentsline {figure}{\numberline {5.20}{\ignorespaces Ejemplo 120. Girolamo Diruta, \textit  {Il Transilvano}, Venecia, 1610, trino \textit  {accelerando}. }}{50}}
\newlabel{ex8-120}{{5.20}{50}}
\@writefile{lof}{\contentsline {figure}{\numberline {5.21}{\ignorespaces Ejemplo 121. Claudio Monteverdi, \textit  {Orfeo}, 1607, Acto III, trino \textit  {accelerando}. }}{50}}
\newlabel{ex8-121}{{5.21}{50}}
\@writefile{lof}{\contentsline {figure}{\numberline {5.22}{\ignorespaces Ejemplo 122. Biagio Marini, `Sonata per l'organo e Violino \IeC {\`o} Cornetto', en sus \textit  {Sonate, Symphonie, Canzoni} \dots  {} Op. 8, Venecia, 1629, trino escrito con figuras medidas pero, probablemente, con la intenci\IeC {\'o}n de que sea interpretado como es usual, mediante repercusiones sin medida ni cuenta exacta, como tal vez lo confirma en este caso la indicaci\IeC {\'o}n \textit  {groppo} (trino). }}{50}}
\newlabel{ex8-122}{{5.22}{50}}
\@writefile{lof}{\contentsline {figure}{\numberline {5.23}{\ignorespaces Ejemplo 123. Playford, \textit  {Introduction}, Londres, 1654, tabla de ornamentos, trino. }}{51}}
\newlabel{ex8-123}{{5.23}{51}}
\@writefile{lof}{\contentsline {figure}{\numberline {5.24}{\ignorespaces Ejemplo 124. Jean Rousseau, \textit  {Trait\IeC {\'e} de la viole}, Par\IeC {\'\i }s, 1687, p\IeC {\'a}gs. 99--100. \textit  {double cadence}; (a) escritura de Rousseau; (b) explicaci\IeC {\'o}n de Rousseau; (c) mi propia explicaci\IeC {\'o}n del comp\IeC {\'a}s previo, que en el texto de Rousseau no est\IeC {\'a} del todo desarrollado. }}{51}}
\newlabel{ex8-124}{{5.24}{51}}
\@writefile{lof}{\contentsline {figure}{\numberline {5.25}{\ignorespaces Ejemplo 125. D'Anglebert, \textit  {Pi\IeC {\`e}ces de Clavecin}, Par\IeC {\'\i }s, 1689. }}{51}}
\newlabel{ex8-125}{{5.25}{51}}
\@writefile{lof}{\contentsline {figure}{\numberline {5.26}{\ignorespaces Ejemplo 126. Purcell (o su editor), \textit  {Lecciones} p\IeC {\'o}stumas, Londres, 1696, trinos sin y con preparaci\IeC {\'o}n. }}{51}}
\newlabel{ex8-126}{{5.26}{51}}
\@writefile{lof}{\contentsline {figure}{\numberline {5.27}{\ignorespaces Ejemplo 127. August K\IeC {\"u}hnel, \textit  {Sonate \IeC {\^o} Partite ad una \IeC {\^o} due Viole da gamba, con il basso continuo}, Cassel, 1698, No. 1, c. 14, trinos simult\IeC {\'a}neos en segundas consecutivas (simplemente tocarlos con decisi\IeC {\'o}n). }}{52}}
\newlabel{ex8-127}{{5.27}{52}}
\@writefile{lof}{\contentsline {figure}{\numberline {5.28}{\ignorespaces Ejemplo 128. Fran\IeC {\c c}ois Couperin, \textit  {Pi\IeC {\`e}ces de Clavecin}, Par\IeC {\'\i }s, 1713, trinos (mis interpretaciones). }}{53}}
\newlabel{ex8-128}{{5.28}{53}}
\@writefile{lof}{\contentsline {figure}{\numberline {5.29}{\ignorespaces Ejemplo 129. Jean-Philippe Rameau, \textit  {Pi\IeC {\`e}ces de Clavecin}, Par\IeC {\'\i }s [1724], Tabla de Ornamentos, trino sin preparaci\IeC {\'o}n, trino con preparaci\IeC {\'o}n y trino con terminaci\IeC {\'o}n (\textit  {doble cadencia}). }}{54}}
\newlabel{ex8-129}{{5.29}{54}}
\@writefile{lof}{\contentsline {figure}{\numberline {5.30}{\ignorespaces  `La nota ligada (\textit  {li\IeC {\'e}e}) a la que lleva un Trino o Mordente, sirve de comienzo para cada uno de estos ornamentos.' }}{54}}
\newlabel{ex8-129b}{{5.30}{54}}
\@writefile{lof}{\contentsline {figure}{\numberline {5.31}{\ignorespaces Ejemplo 130. Vincenzo Manfredini, \textit  {Regole armoniche}, Venecia, 1775, p\IeC {\'a}g. 27, comienzo del trino en la nota superior, normalmente escrita por separado. }}{54}}
\newlabel{ex8-130}{{5.31}{54}}
\@writefile{lof}{\contentsline {figure}{\numberline {5.32}{\ignorespaces Ejemplo 131. C. P. E. Bach, \textit  {Essay}, Berl\IeC {\'\i }n, 1753, II, ii, 9, nota auxiliar superior escrita aqu\IeC {\'\i } para el trino (si bien normalmente no se escribe) con el prop\IeC {\'o}sito de indicar la necesidad de comenzar el trino con esta nota a\IeC {\'u}n cuando la nota anterior lleva la misma altura; (a) mi interpretaci\IeC {\'o}n aproximada de acuerdo con la primer alternativa que ofrece Marpurg en \textit  {(277)}; (b) mi interpretaci\IeC {\'o}n aproximada de acuerdo con la segunda alternativa que ofrece Marpurg en \textit  {(277)}. }}{55}}
\newlabel{ex8-131}{{5.32}{55}}
\@writefile{lof}{\contentsline {figure}{\numberline {5.33}{\ignorespaces Ejemplo 132. C. P. E. Bach, \textit  {Essay}, Berl\IeC {\'\i }n, 1753, II, iii, 30, `el medio trino o \enquote {con rebote} (\textit  {halbe oder Prall-Triller})', tal como aparece en su Tabla IV, Figura XLV; (b) el contexto hace que el \textit  {Pralltriller} se convierta en \textit  {Schneller} (`espasm\IeC {\'o}dico')cuando el tempo es r\IeC {\'a}pido, Tabla IV, Figura XLVIII; (c) muestra c\IeC {\'o}mo se lo debe interpretar si el tempo es r\IeC {\'a}pido; (d) para un tempo no tan r\IeC {\'a}pido. }}{55}}
\newlabel{ex8-132}{{5.33}{55}}
\@writefile{lof}{\contentsline {figure}{\numberline {5.34}{\ignorespaces Ejemplo 133. George Frideric Handel, Sonata en Do mayor para Viola da Gamba y Clavec\IeC {\'\i }n (realizaci\IeC {\'o}n del propio Handel), (a) 1er mov., c. 2, trino escrito para el clavec\IeC {\'\i }n mediante el signo de apoyatura; (b) c. 4, trino para la viola da gamba indicado mediante el signo de trino; (c) final, trinos en d\IeC {\'e}cimas entre el clave y la gamba, escritos de diferente forma pero con la intenci\IeC {\'o}n de que sean ejecutados id\IeC {\'e}nticamente. }}{56}}
\newlabel{ex8-133}{{5.34}{56}}
\@writefile{lof}{\contentsline {figure}{\numberline {5.35}{\ignorespaces Ejemplo 134. J. S. Bach, \textit  {La Pasi\IeC {\'o}n seg\IeC {\'u}n San Mateo}, `Erbarme dich', signo de apoyatura probablemente indicando trino. }}{56}}
\newlabel{ex8-134}{{5.35}{56}}
\@writefile{lof}{\contentsline {figure}{\numberline {5.36}{\ignorespaces Ejemplo 135. Leopold Mozart, \textit  {Violinschule}, Augsburgo, 1756, X, 6, trino terminado con nota de anticipaci\IeC {\'o}n. }}{56}}
\newlabel{ex8-135}{{5.36}{56}}
\@writefile{lof}{\contentsline {figure}{\numberline {5.37}{\ignorespaces Ejemplo 136. Henri-Louis Choquel, \textit  {La musique rendue sensible par la m\IeC {\'e}chanique}, Par\IeC {\'\i }s, 1759, y ed. de 1762, p. 166, trino con preparaci\IeC {\'o}n, (a) notaci\IeC {\'o}n de Choquel; (b) tal como il\IeC {\'o}gicamente lo ilustr\IeC {\'o} Choquel; (c) aproximadamente como yo lo interpretar\IeC {\'\i }a seg\IeC {\'u}n las instrucciones escritas de Choquel. }}{57}}
\newlabel{ex8-136}{{5.37}{57}}
\@writefile{lof}{\contentsline {figure}{\numberline {5.38}{\ignorespaces Ejemplo 137. J.-J. Rousseau, \textit  {Dict.}, Par\IeC {\'\i }s, 1768, L\IeC {\'a}mina B, trino con preparaci\IeC {\'o}n muy extensa (su interpretaci\IeC {\'o}n seguida de la m\IeC {\'\i }a). }}{57}}
\newlabel{ex8-137}{{5.38}{57}}
\@writefile{lof}{\contentsline {figure}{\numberline {5.39}{\ignorespaces Ejemplo 138. (a) Preparaci\IeC {\'o}n no indicada; (b) preparaci\IeC {\'o}n indicada incorrectamente; (c) interpretaci\IeC {\'o}n aproximada \textit  {non legato} (N. del T.: ``detached'': separado, suelto); (d) interpretaci\IeC {\'o}n aproximada \textit  {legato} (los ejemplos son m\IeC {\'\i }os). }}{57}}
\newlabel{ex8-138}{{5.39}{57}}
\@writefile{lof}{\contentsline {figure}{\numberline {5.40}{\ignorespaces Ejemplo 139. (a) Resoluci\IeC {\'o}n no indicada; (b) resoluci\IeC {\'o}n indicada incorrectamente, pero indicando con seguridad un trino; (c) resoluci\IeC {\'o}n indicada aproximadamente, sugiriendo un trino en forma a\IeC {\'u}n m\IeC {\'a}s convincente; (d) interpretaci\IeC {\'o}n para todos los casos anteriores (los ejemplos son m\IeC {\'\i }os). }}{58}}
\newlabel{ex8-139}{{5.40}{58}}
\@writefile{lof}{\contentsline {figure}{\numberline {5.41}{\ignorespaces Ejemplo 140. (a) Cadencia indicada como dominante 5-3 a t\IeC {\'o}nica 5-3; (b) trino aplicando el dominante 5-4; (c) trino aplicando el dominante 6-3; (d) trino aplicando el dominante 6-4 (los ejemplos son m\IeC {\'\i }os). }}{58}}
\newlabel{ex8-140}{{5.41}{58}}
