\relax 
\catcode `"\active 
\catcode `<\active 
\catcode `>\active 
\@nameuse{es@quoting}
\select@language{spanish}
\@writefile{toc}{\select@language{spanish}}
\@writefile{lof}{\select@language{spanish}}
\@writefile{lot}{\select@language{spanish}}
\@writefile{lof}{\contentsline {figure}{\numberline {1}{\ignorespaces Ejemplo 116. Sylvestro di Ganassi, \textit  {Fontegara}, Venecia, 1535, demostraci\IeC {\'o}n de especies de trino. }}{1}}
\newlabel{ex8-116}{{1}{1}}
\@writefile{lof}{\contentsline {figure}{\numberline {2}{\ignorespaces Ejemplo 117. Diego Ortiz, \textit  {Trattado}, Roma, 1553, demostraci\IeC {\'o}n de las notas del trino [se sobreentiende el ligado; ver f. 3r, `con un solo golpe de arco']. }}{1}}
\newlabel{ex8-117}{{2}{1}}
\@writefile{lof}{\contentsline {figure}{\numberline {3}{\ignorespaces Ejemplo 118. Giovanni Luca Conforti, \textit  {Breve et facile maniera d'essercitarsi a far passaggi}, Roma, 1593, trino escrito. }}{2}}
\newlabel{ex8-118}{{3}{2}}
\@writefile{lof}{\contentsline {figure}{\numberline {4}{\ignorespaces Ejemplo 119. Giulio Caccini \textit  {Euridice}, 1600, divisiones finalizando (a) con un trino escrito; (b) con un trino impl\IeC {\'\i }cito (llamado \textit  {groppo} por Caccini). }}{2}}
\newlabel{ex8-119}{{4}{2}}
\@writefile{lof}{\contentsline {figure}{\numberline {5}{\ignorespaces Ejemplo 120. Girolamo Diruta, \textit  {Il Transilvano}, Venecia, 1610, trino \textit  {accelerando}. }}{2}}
\newlabel{ex8-120}{{5}{2}}
\@writefile{lof}{\contentsline {figure}{\numberline {6}{\ignorespaces Ejemplo 121. Claudio Monteverdi, \textit  {Orfeo}, 1607, Acto III, trino \textit  {accelerando}. }}{2}}
\newlabel{ex8-121}{{6}{2}}
\@writefile{lof}{\contentsline {figure}{\numberline {7}{\ignorespaces Ejemplo 122. Biagio Marini, `Sonata per l'organo e Violino \IeC {\`o} Cornetto', en sus \textit  {Sonate, Symphonie, Canzoni} \dots  {} Op. 8, Venecia, 1629, trino escrito con figuras medidas pero, probablemente, con la intenci\IeC {\'o}n de que sea interpretado como es usual, mediante repercusiones sin medida ni cuenta exacta, como tal vez lo confirma en este caso la indicaci\IeC {\'o}n \textit  {groppo} (trino). }}{3}}
\newlabel{ex8-122}{{7}{3}}
\@writefile{lof}{\contentsline {figure}{\numberline {8}{\ignorespaces Ejemplo 123. Playford, \textit  {Introduction}, Londres, 1654, tabla de ornamentos, trino. }}{3}}
\newlabel{ex8-123}{{8}{3}}
\@writefile{lof}{\contentsline {figure}{\numberline {9}{\ignorespaces Ejemplo 124. Jean Rousseau, \textit  {Trait\IeC {\'e} de la viole}, Par\IeC {\'\i }s, 1687, p\IeC {\'a}gs. 99--100. \textit  {double cadence}; (a) escritura de Rousseau; (b) explicaci\IeC {\'o}n de Rousseau; (c) mi propia explicaci\IeC {\'o}n del comp\IeC {\'a}s previo, que en el texto de Rousseau no est\IeC {\'a} del todo desarrollado. }}{3}}
\newlabel{ex8-124}{{9}{3}}
\@writefile{lof}{\contentsline {figure}{\numberline {10}{\ignorespaces Ejemplo 125. D'Anglebert, \textit  {Pi\IeC {\`e}ces de Clavecin}, Par\IeC {\'\i }s, 1689. }}{4}}
\newlabel{ex8-125}{{10}{4}}
\@writefile{lof}{\contentsline {figure}{\numberline {11}{\ignorespaces Ejemplo 126. Purcell (o su editor), \textit  {Lecciones} p\IeC {\'o}stumas, Londres, 1696, trinos sin y con preparaci\IeC {\'o}n. }}{4}}
\newlabel{ex8-126}{{11}{4}}
\@writefile{lof}{\contentsline {figure}{\numberline {12}{\ignorespaces Ejemplo 127. August K\IeC {\"u}hnel, \textit  {Sonate \IeC {\^o} Partite ad una \IeC {\^o} due Viole da gamba, con il basso continuo}, Cassel, 1698, No. 1, c. 14, trinos simult\IeC {\'a}neos en segundas consecutivas (simplemente tocarlos con decisi\IeC {\'o}n). }}{4}}
\newlabel{ex8-127}{{12}{4}}
\@writefile{lof}{\contentsline {figure}{\numberline {13}{\ignorespaces Ejemplo 128. Fran\IeC {\c c}ois Couperin, \textit  {Pi\IeC {\`e}ces de Clavecin}, Par\IeC {\'\i }s, 1713, trinos (mis interpretaciones). }}{5}}
\newlabel{ex8-128}{{13}{5}}
\@writefile{lof}{\contentsline {figure}{\numberline {14}{\ignorespaces Ejemplo 129. Jean-Philippe Rameau, \textit  {Pi\IeC {\`e}ces de Clavecin}, Par\IeC {\'\i }s [1724], Tabla de Ornamentos, trino sin preparaci\IeC {\'o}n, trino con preparaci\IeC {\'o}n y trino con terminaci\IeC {\'o}n (\textit  {doble cadencia}). }}{6}}
\newlabel{ex8-129}{{14}{6}}
\@writefile{lof}{\contentsline {figure}{\numberline {15}{\ignorespaces  `La nota ligada (\textit  {li\IeC {\'e}e}) a la que lleva un Trino o Mordente, sirve de comienzo para cada uno de estos ornamentos.' }}{6}}
\newlabel{ex8-129b}{{15}{6}}
\@writefile{lof}{\contentsline {figure}{\numberline {16}{\ignorespaces Ejemplo 130. Vincenzo Manfredini, \textit  {Regole armoniche}, Venecia, 1775, p\IeC {\'a}g. 27, comienzo del trino en la nota superior, normalmente escrita por separado. }}{6}}
\newlabel{ex8-130}{{16}{6}}
\@writefile{lof}{\contentsline {figure}{\numberline {17}{\ignorespaces Ejemplo 131. C. P. E. Bach, \textit  {Essay}, Berl\IeC {\'\i }n, 1753, II, ii, 9, nota auxiliar superior escrita aqu\IeC {\'\i } para el trino (si bien normalmente no se escribe) con el prop\IeC {\'o}sito de indicar la necesidad de comenzar el trino con esta nota a\IeC {\'u}n cuando la nota anterior lleva la misma altura; (a) mi interpretaci\IeC {\'o}n aproximada de acuerdo con la primer alternativa que ofrece Marpurg en \textit  {(277)}; (b) mi interpretaci\IeC {\'o}n aproximada de acuerdo con la segunda alternativa que ofrece Marpurg en \textit  {(277)}. }}{7}}
\newlabel{ex8-131}{{17}{7}}
\@writefile{lof}{\contentsline {figure}{\numberline {18}{\ignorespaces Ejemplo 132. C. P. E. Bach, \textit  {Essay}, Berl\IeC {\'\i }n, 1753, II, iii, 30, `el medio trino o \enquote {con rebote} (\textit  {halbe oder Prall-Triller})', tal como aparece en su Tabla IV, Figura XLV; (b) el contexto hace que el \textit  {Pralltriller} se convierta en \textit  {Schneller} (`espasm\IeC {\'o}dico')cuando el tempo es r\IeC {\'a}pido, Tabla IV, Figura XLVIII; (c) muestra c\IeC {\'o}mo se lo debe interpretar si el tempo es r\IeC {\'a}pido; (d) para un tempo no tan r\IeC {\'a}pido. }}{7}}
\newlabel{ex8-132}{{18}{7}}
\@writefile{lof}{\contentsline {figure}{\numberline {19}{\ignorespaces Ejemplo 133. George Frideric Handel, Sonata en Do mayor para Viola da Gamba y Clavec\IeC {\'\i }n (realizaci\IeC {\'o}n del propio Handel), (a) 1er mov., c. 2, trino escrito para el clavec\IeC {\'\i }n mediante el signo de apoyatura; (b) c. 4, trino para la viola da gamba indicado mediante el signo de trino; (c) final, trinos en d\IeC {\'e}cimas entre el clave y la gamba, escritos de diferente forma pero con la intenci\IeC {\'o}n de que sean ejecutados id\IeC {\'e}nticamente. }}{8}}
\newlabel{ex8-133}{{19}{8}}
\@writefile{lof}{\contentsline {figure}{\numberline {20}{\ignorespaces Ejemplo 134. J. S. Bach, \textit  {La Pasi\IeC {\'o}n seg\IeC {\'u}n San Mateo}, `Erbarme dich', signo de apoyatura probablemente indicando trino. }}{8}}
\newlabel{ex8-134}{{20}{8}}
\@writefile{lof}{\contentsline {figure}{\numberline {21}{\ignorespaces Ejemplo 135. Leopold Mozart, \textit  {Violinschule}, Augsburgo, 1756, X, 6, trino terminado con nota de anticipaci\IeC {\'o}n. }}{8}}
\newlabel{ex8-135}{{21}{8}}
\@writefile{lof}{\contentsline {figure}{\numberline {22}{\ignorespaces Ejemplo 136. Henri-Louis Choquel, \textit  {La musique rendue sensible par la m\IeC {\'e}chanique}, Par\IeC {\'\i }s, 1759, y ed. de 1762, p. 166, trino con preparaci\IeC {\'o}n, (a) notaci\IeC {\'o}n de Choquel; (b) tal como il\IeC {\'o}gicamente lo ilustr\IeC {\'o} Choquel; (c) aproximadamente como yo lo interpretar\IeC {\'\i }a seg\IeC {\'u}n las instrucciones escritas de Choquel. }}{9}}
\newlabel{ex8-136}{{22}{9}}
\@writefile{lof}{\contentsline {figure}{\numberline {23}{\ignorespaces Ejemplo 137. J.-J. Rousseau, \textit  {Dict.}, Par\IeC {\'\i }s, 1768, L\IeC {\'a}mina B, trino con preparaci\IeC {\'o}n muy extensa (su interpretaci\IeC {\'o}n seguida de la m\IeC {\'\i }a). }}{9}}
\newlabel{ex8-137}{{23}{9}}
\@writefile{lof}{\contentsline {figure}{\numberline {24}{\ignorespaces Ejemplo 138. (a) Preparaci\IeC {\'o}n no indicada; (b) preparaci\IeC {\'o}n indicada incorrectamente; (c) interpretaci\IeC {\'o}n aproximada \textit  {non legato} (N. del T.: ``detached'': separado, suelto); (d) interpretaci\IeC {\'o}n aproximada \textit  {legato} (los ejemplos son m\IeC {\'\i }os). }}{9}}
\newlabel{ex8-138}{{24}{9}}
\@writefile{lof}{\contentsline {figure}{\numberline {25}{\ignorespaces Ejemplo 139. (a) Resoluci\IeC {\'o}n no indicada; (b) resoluci\IeC {\'o}n indicada incorrectamente, pero indicando con seguridad un trino; (c) resoluci\IeC {\'o}n indicada aproximadamente, sugiriendo un trino en forma a\IeC {\'u}n m\IeC {\'a}s convincente; (d) interpretaci\IeC {\'o}n para todos los casos anteriores (los ejemplos son m\IeC {\'\i }os). }}{10}}
\newlabel{ex8-139}{{25}{10}}
\@writefile{lof}{\contentsline {figure}{\numberline {26}{\ignorespaces Ejemplo 140. (a) Cadencia indicada como dominante 5-3 a t\IeC {\'o}nica 5-3; (b) trino aplicando el dominante 5-4; (c) trino aplicando el dominante 6-3; (d) trino aplicando el dominante 6-4 (los ejemplos son m\IeC {\'\i }os). }}{10}}
\newlabel{ex8-140}{{26}{10}}
