\relax 
\catcode `"\active 
\catcode `<\active 
\catcode `>\active 
\@nameuse{es@quoting}
\select@language{spanish}
\@writefile{toc}{\select@language{spanish}}
\@writefile{lof}{\select@language{spanish}}
\@writefile{lot}{\select@language{spanish}}
\@writefile{lot}{\contentsline {table}{\numberline {1}{\ignorespaces Medidas metron\IeC {\'o}micas basadas en Quantz.}}{2}}
\newlabel{table_MM_quantz}{{1}{2}}
\@writefile{lof}{\contentsline {figure}{\numberline {1}{\ignorespaces El puntillo variable en el barroco.}}{10}}
\newlabel{table_variable_baroque_dot}{{1}{10}}
