\relax 
\catcode `"\active 
\catcode `<\active 
\catcode `>\active 
\@nameuse{es@quoting}
\select@language{spanish}
\@writefile{toc}{\select@language{spanish}}
\@writefile{lof}{\select@language{spanish}}
\@writefile{lot}{\select@language{spanish}}
\@writefile{lof}{\contentsline {figure}{\numberline {1}{\ignorespaces Ejemplo 73. Giulio Caccini, comienzo de `Ardi, cor mio', (a) transcripto tal cual aparece en Florencia, Bibl. Naz., M5 Magl. XIX.66, p. 131 (y casi exactamente igual aparece en Bruselas, Bibl. du Cons., MS 704, pp. 77--81); (b) tal como aparece ornamentado en Caccini, \textit  {Nuove Musiche}, Florencia, 1602 (revisado por H. Wiley Hitchcock). }}{2}}
\newlabel{ex7-73}{{1}{2}}
\@writefile{lof}{\contentsline {figure}{\numberline {2}{\ignorespaces Ejemplo 74.}}{3}}
\newlabel{ex7-74}{{2}{3}}
\@writefile{lof}{\contentsline {figure}{\numberline {3}{\ignorespaces Ejemplo 75. M. de la Barre, \textit  {Airs \IeC {\`a} deux parties}, Par\IeC {\'\i }s, p\IeC {\'a}gs. 12 en adelante, sugiere breves ornamentaciones adicionales y un couplet para una sarabanda vocal. }}{4}}
\newlabel{ex7-75}{{3}{4}}
\@writefile{lof}{\contentsline {figure}{\numberline {4}{\ignorespaces Ejemplo 77. Geminiano Giacomelli, \textit  {Merope}, Venecia, 1734, comienzo de `Quell' usignolo', (a) tal como est\IeC {\'a} escrito, (b) libremente ornamentado, incluyendo una cadenza relativamente breve, por Farinelli (propiamente Carlo Broschi), repr. por Franz Hab\IeC {\"o}ck, \textit  {Die Gesangkunst der Kastraten}, Viena, 1923, p\IeC {\'a}g. 140, de un manuscrito no identificado (en realidad se trata de \IeC {\"O}sterreichische Nationalbibliothek MS 19111 No. 3, Viena). }}{5}}
\newlabel{ex7-77}{{4}{5}}
\@writefile{lof}{\contentsline {figure}{\numberline {5}{\ignorespaces Ejemplo 78. Corelli, op. V, No. 1, (a) en la primera edici\IeC {\'o}n, (b) ornamentaci\IeC {\'o}n por la edici\IeC {\'o}n de Roger de 1715 (probablemente seg\IeC {\'u}n Corelli, recopilado muchos a\IeC {\~n}os despu\IeC {\'e}s por Roger). }}{6}}
\newlabel{ex7-78}{{5}{6}}
\@writefile{lof}{\contentsline {figure}{\numberline {6}{\ignorespaces Ejemplo 79a. Arcangelo Corelli, Sonatas para viol\IeC {\'\i }n, op. V, Roma, 1700, No. 9, con elaboraciones ornamentales libres (primera mitad del siglo XVIII) por Francesco Geminiani, impreso por Sir John Hawkins, \textit  {A General History \dots  of Music}, Londres, 1776, ed. de 1875, II, p\IeC {\'a}gs. 90 en adelante (y en Hans-Peter Schmitz, \textit  {Die Kunst der Verzierung}, Kassel, 1955, y ed., Kassel, 1965, p\IeC {\'a}gs. 62--9); tocar las apoyaturas breves, acentuadas, sobre el pulso. \textit  {(N. del T.: v\IeC {\'e}ase tambi\IeC {\'e}n los ejemplos 79b, 79c y 79d.)} }}{6}}
\newlabel{ex7-79a}{{6}{6}}
\@writefile{lof}{\contentsline {figure}{\numberline {7}{\ignorespaces Ejemplo 79b. }}{7}}
\newlabel{ex7-79b}{{7}{7}}
\@writefile{lof}{\contentsline {figure}{\numberline {8}{\ignorespaces Ejemplo 79c. }}{7}}
\newlabel{ex7-79c}{{8}{7}}
\@writefile{lof}{\contentsline {figure}{\numberline {9}{\ignorespaces Ejemplo 79d. \IeC {\'U}ltimo movimiento; versiones cotejadas por Sol Babitz y comunicadas en forma privada. }}{7}}
\newlabel{ex7-79d}{{9}{7}}
\@writefile{lof}{\contentsline {figure}{\numberline {10}{\ignorespaces Ejemplo 80. J. B. Loeillet, Sonata en Fa mayor para flauta, viol\IeC {\'\i }n u oboe, Largo, \IeC {\'u}ltimos compases, breve cadenza escrita (ed. Hinnenthal, Berl\IeC {\'\i }n, 1945). }}{8}}
\newlabel{ex7-80}{{10}{8}}
\@writefile{lof}{\contentsline {figure}{\numberline {11}{\ignorespaces Ejemplo 81. Corelli, Op. V No. 7, (a) notaci\IeC {\'o}n del original; (b) mi propuesta de ornamentaci\IeC {\'o}n; (c) para la repetici\IeC {\'o}n. }}{9}}
\newlabel{ex7-81}{{11}{9}}
\@writefile{lof}{\contentsline {figure}{\numberline {12}{\ignorespaces Ejemplo 81 (continuaci\IeC {\'o}n). }}{10}}
\newlabel{ex7-81cont}{{12}{10}}
