\relax 
\catcode `"\active 
\catcode `<\active 
\catcode `>\active 
\@nameuse{es@quoting}
\@writefile{lof}{\contentsline {figure}{\numberline {1}{\ignorespaces banquito met\IeC {\'a}lico plegable\relax }}{1}}
\providecommand*\caption@xref[2]{\@setref\relax\@undefined{#1}}
\newlabel{un}{{1}{1}}
\@writefile{lof}{\contentsline {figure}{\numberline {2}{\ignorespaces banquito de madera plegable\relax }}{1}}
\@writefile{lof}{\contentsline {figure}{\numberline {3}{\ignorespaces ergoplay comercial\relax }}{2}}
\@writefile{lof}{\contentsline {figure}{\numberline {4}{\ignorespaces ergoplay colocado en la guitarra\relax }}{2}}
\@writefile{lof}{\contentsline {figure}{\numberline {5}{\ignorespaces posici\IeC {\'o}n con el ergoplay colocado\relax }}{3}}
\@writefile{lof}{\contentsline {figure}{\numberline {6}{\ignorespaces ergoplay de gomaespuma y cuerina (o similar)\relax }}{3}}
