\version "2.20.0"

%#(set-global-staff-size 15)

\include "/usr/lib/lymd/lilypond/include/global.ly"
\include "/usr/lib/lymd/lilypond/include/guitardefinitions.ly"

\paper{
  indent=0\mm
  line-width=136\mm
  oddFooterMarkup=##f
  oddHeaderMarkup=##f
  bookTitleMarkup = ##f
  scoreTitleMarkup = ##f
}

\markup { \vspace #1 }

\score {
  \new Staff {
    \clef "treble_8" \time 2/4
    \spacingWider
    \relative c {
      \rhDown
      <a\rhp a'\rhi c\rhm e\rha>8 <a a' c e>
      <e' a c e> <e a c e>
      <e, a' c e> <e a' c e>
      <e' a c e> <e a c e>
    }
    \bar "|"
  }
  \layout { \context { \Staff \omit TimeSignature } }
}

