\version "2.20.0"

%#(set-global-staff-size 15)

\include "/usr/lib/lymd/lilypond/include/global.ly"
\include "/usr/lib/lymd/lilypond/include/guitardefinitions.ly"

\paper{
  indent=0\mm
  line-width=136\mm
  oddFooterMarkup=##f
  oddHeaderMarkup=##f
  bookTitleMarkup = ##f
  scoreTitleMarkup = ##f
}

\markup { \vspace #1 }

\score {
  \new Staff {
    \clef "treble_8" \time 2/4
    \spacingWider
    <<
      \relative c' {
        \rhRight
        <e\rhi>16 <e\rha> <e\rhm> <e\rha>
        <e\rhi> <e\rha> <e\rhm> <e\rha>
        <e\rhi> <e\rha> <e\rhm> <e\rha>
        <e\rhi> <e\rha> <e\rhm> <e\rha>
      }
    \\
      \relative c {
        \rhDown
        <a\rhp>8. <a\rhp>16 _~ a8 <a\rhp>8 _~
        a8 <a\rhp>8 _~ a16 <a\rhp>8.
      }
    >>
    \bar ":|."
  }
}

