0_cambiosdepresentacion@Cambios de presentación
0_traslados@Traslados
0_trasladoscdaalaire@Traslados con cuerda al aire
0_toques@Toques
a_arpegios@Arpegios
a_cejilla@Cejilla
a_contraccion@Contracción
a_distension@Distensión
a_notasrepetidas@Notas repetidas
a_plaque@Acordes plaqué
b_ligados@Ligados
c_adornos@Adornos
d_trino@Trino
e_trinobarroco@Trino barroco
k_armonicos@Armónicos
k_pizzicato@Pizzicato
o_dinamicas@Dinámicas
r_tremolo@Trémolo
